(module 128x64OLED (layer F.Cu) (tedit 61858C26)
  (fp_text reference SSD1306 (at 0 0.254) (layer F.SilkS)
    (effects (font (size 1 1) (thickness 0.15)))
  )
  (fp_text value 128x64OLED (at -7.747 -7.62) (layer F.Fab)
    (effects (font (size 1 1) (thickness 0.15)))
  )
  (fp_line (start 13.462 -9.017) (end 13.208 -9.005) (layer F.SilkS) (width 0.12))
  (fp_line (start 13.462 7.62) (end 13.462 -9.017) (layer F.SilkS) (width 0.12))
  (fp_line (start 10.122 7.595) (end 13.462 7.62) (layer F.SilkS) (width 0.12))
  (fp_line (start 10.122 -9.005) (end 13.208 -9.005) (layer F.SilkS) (width 0.12))
  (fp_line (start -4.699 -11.811) (end -4.699 -9.398) (layer F.SilkS) (width 0.12))
  (fp_line (start 5.08 -9.398) (end -4.699 -9.398) (layer F.SilkS) (width 0.12))
  (fp_line (start 5.08 -11.811) (end 5.08 -9.398) (layer F.SilkS) (width 0.12))
  (fp_line (start -4.699 -11.811) (end 5.08 -11.811) (layer F.SilkS) (width 0.12))
  (fp_line (start -12.978 -9.005) (end 10.122 -9.005) (layer F.SilkS) (width 0.12))
  (fp_line (start -12.978 7.595) (end -12.978 -9.005) (layer F.SilkS) (width 0.12))
  (fp_line (start 10.122 7.595) (end -12.978 7.595) (layer F.SilkS) (width 0.12))
  (fp_line (start -13.4 15) (end -13.4 -12.3) (layer F.SilkS) (width 0.12))
  (fp_line (start 14 15) (end -13.4 15) (layer F.SilkS) (width 0.12))
  (fp_line (start 14 -12.3) (end 14 15) (layer F.SilkS) (width 0.12))
  (fp_line (start -13.4 -12.3) (end 14 -12.3) (layer F.SilkS) (width 0.12))
  (pad 4 thru_hole oval (at 4 -10.6 90) (size 2 2) (drill 1) (layers *.Cu *.Mask))
  (pad 3 thru_hole oval (at 1.46 -10.6 90) (size 2 2) (drill 1) (layers *.Cu *.Mask))
  (pad 1 thru_hole oval (at -3.62 -10.6 90) (size 2 2) (drill 1) (layers *.Cu *.Mask))
  (pad 2 thru_hole oval (at -1.08 -10.6 90) (size 2 2) (drill 1) (layers *.Cu *.Mask))
  (model ${KIPRJMOD}/libraries/models/OLED-128x64-0.96.step
    (offset (xyz 34.5 3.4 3.65))
    (scale (xyz 1 1 1))
    (rotate (xyz 0 0 0))
  )
)
